<?xml version="1.0" encoding="utf-8"?>
<!-- Generator: Adobe Illustrator 22.0.0, SVG Export Plug-In . SVG Version: 6.00 Build 0)  -->
<svg version="1.1" id="OBJECTS" xmlns="http://www.w3.org/2000/svg" xmlns:xlink="http://www.w3.org/1999/xlink" x="0px" y="0px"
	 viewBox="0 0 100.2 70.5" style="enable-background:new 0 0 100.2 70.5;" xml:space="preserve">
<style type="text/css">
	.st0{fill:url(#SVGID_1_);}
	.st1{fill:#FCFCFC;}
	.st2{clip-path:url(#SVGID_3_);}
	.st3{fill:url(#SVGID_4_);}
	.st4{fill:url(#SVGID_5_);}
</style>
<linearGradient id="SVGID_1_" gradientUnits="userSpaceOnUse" x1="68.2057" y1="-5.3138" x2="46.563" y2="72.9125">
	<stop  offset="0" style="stop-color:#535FE9"/>
	<stop  offset="1" style="stop-color:#79D3FE"/>
</linearGradient>
<path class="st0" d="M91.6,70.5h-73c-4.6,0-8.3-3.7-8.3-8.3V21.9c0-4.6,3.7-8.3,8.3-8.3h73c4.6,0,8.3,3.7,8.3,8.3v40.4
	C99.8,66.8,96.1,70.5,91.6,70.5z"/>
<g>
	<g>
		<path class="st1" d="M26.3,32.6h2.3c0.5,0,0.8,0,1,0.1s0.4,0.1,0.6,0.2s0.3,0.3,0.4,0.5s0.2,0.4,0.2,0.7c0,0.3-0.1,0.5-0.2,0.7
			s-0.3,0.4-0.6,0.5c0.3,0.1,0.6,0.3,0.8,0.5s0.3,0.5,0.3,0.9c0,0.3-0.1,0.5-0.2,0.8s-0.3,0.4-0.5,0.6s-0.5,0.2-0.8,0.3
			c-0.2,0-0.7,0-1.4,0h-1.9V32.6z M27.4,33.6v1.3h0.8c0.5,0,0.7,0,0.8,0c0.2,0,0.4-0.1,0.5-0.2s0.2-0.3,0.2-0.4c0-0.2,0-0.3-0.1-0.4
			s-0.2-0.2-0.4-0.2c-0.1,0-0.4,0-1,0H27.4z M27.4,35.8v1.5h1.1c0.4,0,0.7,0,0.8,0c0.2,0,0.3-0.1,0.4-0.2s0.2-0.3,0.2-0.5
			c0-0.2,0-0.3-0.1-0.4s-0.2-0.2-0.4-0.3s-0.5-0.1-1-0.1H27.4z"/>
		<path class="st1" d="M37.2,38.3h-1.3L35.4,37h-2.3l-0.5,1.3h-1.2l2.2-5.7h1.2L37.2,38.3z M35.1,36.1l-0.8-2.1l-0.8,2.1H35.1z
			 M34.4,31.9c0.1,0,0.2-0.1,0.2-0.2c0-0.1,0-0.1-0.1-0.2c-0.1-0.1-0.3-0.1-0.5-0.1c-0.1,0-0.2,0-0.4,0l0-0.4c0.1,0,0.3,0,0.6,0
			c0.3,0,0.6,0.1,0.8,0.2c0.2,0.1,0.3,0.3,0.3,0.5c0,0.3-0.2,0.4-0.7,0.5v0.2h-0.4V32C34.2,32,34.3,31.9,34.4,31.9z"/>
		<path class="st1" d="M37.6,35.5c0-0.6,0.1-1.1,0.3-1.5c0.1-0.3,0.3-0.6,0.5-0.8s0.5-0.4,0.7-0.5c0.4-0.2,0.8-0.2,1.2-0.2
			c0.8,0,1.5,0.3,2,0.8s0.8,1.3,0.8,2.2c0,0.9-0.3,1.6-0.8,2.2s-1.2,0.8-2,0.8c-0.9,0-1.5-0.3-2-0.8S37.6,36.4,37.6,35.5z
			 M38.8,35.5c0,0.6,0.1,1.1,0.4,1.5s0.7,0.5,1.1,0.5s0.8-0.2,1.1-0.5s0.4-0.8,0.4-1.5c0-0.7-0.1-1.1-0.4-1.5s-0.7-0.5-1.1-0.5
			s-0.9,0.2-1.2,0.5S38.8,34.8,38.8,35.5z"/>
		<path class="st1" d="M46.3,38.3v-5.7h1.2v2.3h2.3v-2.3h1.2v5.7h-1.2v-2.5h-2.3v2.5H46.3z"/>
		<path class="st1" d="M57.2,38.3h-1.3L55.4,37h-2.3l-0.5,1.3h-1.2l2.2-5.7h1.2L57.2,38.3z M54.9,32.3h-0.7l-1.1-1.2h1.2L54.9,32.3z
			 M55.1,36.1l-0.8-2.1l-0.8,2.1H55.1z"/>
		<path class="st1" d="M57.8,38.3v-5.7h1.1l2.3,3.8v-3.8h1.1v5.7h-1.2l-2.3-3.7v3.7H57.8z"/>
		<path class="st1" d="M63.6,38.3v-5.7h1.2v2.3H67v-2.3h1.2v5.7H67v-2.5h-2.3v2.5H63.6z"/>
		<path class="st1" d="M71.6,38.3v-5.7h1.2v4.7h2.9v1H71.6z"/>
		<path class="st1" d="M76.2,35.5c0-0.6,0.1-1.1,0.3-1.5c0.1-0.3,0.3-0.6,0.5-0.8s0.5-0.4,0.7-0.5c0.4-0.2,0.8-0.2,1.2-0.2
			c0.8,0,1.5,0.3,2,0.8s0.8,1.3,0.8,2.2c0,0.9-0.3,1.6-0.8,2.2s-1.2,0.8-2,0.8c-0.9,0-1.5-0.3-2-0.8S76.2,36.4,76.2,35.5z
			 M77.4,35.5c0,0.6,0.1,1.1,0.4,1.5s0.7,0.5,1.1,0.5s0.8-0.2,1.1-0.5s0.4-0.8,0.4-1.5c0-0.7-0.1-1.1-0.4-1.5s-0.7-0.5-1.1-0.5
			s-0.9,0.2-1.2,0.5S77.4,34.8,77.4,35.5z M77.7,31.8c0-0.2,0.1-0.3,0.2-0.5s0.3-0.2,0.6-0.2c0.2,0,0.4,0.1,0.7,0.2
			c0.2,0.1,0.3,0.1,0.4,0.1c0.2,0,0.3-0.1,0.3-0.3h0.4c0,0.4-0.3,0.7-0.8,0.7c-0.2,0-0.4-0.1-0.6-0.2c-0.2-0.1-0.4-0.1-0.5-0.1
			c-0.2,0-0.3,0.1-0.3,0.3H77.7z M79,32.1l-0.4,0.3h-0.8l0.9-0.5h0.7l0.9,0.5h-0.8L79,32.1z"/>
		<path class="st1" d="M82.7,38.3v-5.7h1.2v5.7H82.7z"/>
		<path class="st1" d="M35.4,47.9v-5.7h1.2v2.5l2.3-2.5h1.6l-2.2,2.2l2.3,3.5h-1.5l-1.6-2.7l-0.9,1v1.7H35.4z"/>
		<path class="st1" d="M42.6,47.9v-2.4l-2.1-3.3h1.4l1.3,2.3l1.3-2.3h1.3l-2.1,3.3v2.4H42.6z M42.5,41.9H42c0-0.1,0-0.1,0-0.1
			c0-0.3,0.1-0.5,0.2-0.6s0.3-0.2,0.5-0.2c0.1,0,0.2,0,0.3,0s0.2,0.1,0.4,0.2s0.4,0.1,0.5,0.1c0.1,0,0.2,0,0.2-0.1s0.1-0.1,0.1-0.3
			h0.5c0,0.4-0.1,0.6-0.2,0.8s-0.3,0.2-0.5,0.2c-0.1,0-0.2,0-0.3,0c-0.1,0-0.2-0.1-0.4-0.2s-0.4-0.1-0.5-0.1c-0.1,0-0.1,0-0.2,0.1
			S42.5,41.8,42.5,41.9z"/>
		<path class="st1" d="M50,47.9v-4.8h-1.7v-1h4.6v1h-1.7v4.8H50z"/>
		<path class="st1" d="M53.6,47.9v-5.7h1.2v2.3H57v-2.3h1.2v5.7H57v-2.5h-2.3v2.5H53.6z"/>
		<path class="st1" d="M59.4,42.2h1.2v3.1c0,0.5,0,0.8,0,1c0,0.2,0.2,0.4,0.4,0.6s0.4,0.2,0.8,0.2c0.3,0,0.6-0.1,0.7-0.2
			s0.3-0.3,0.3-0.5s0.1-0.5,0.1-1v-3.2h1.2v3c0,0.7,0,1.2-0.1,1.5s-0.2,0.5-0.3,0.7s-0.4,0.4-0.7,0.5S62.2,48,61.7,48
			c-0.5,0-1-0.1-1.2-0.2s-0.5-0.3-0.7-0.5s-0.3-0.4-0.3-0.6c-0.1-0.3-0.1-0.8-0.1-1.5V42.2z"/>
		<path class="st1" d="M70.3,47.9h-1.3l-0.5-1.3h-2.3l-0.5,1.3h-1.2l2.2-5.7H68L70.3,47.9z M67.4,41.7L67,42h-0.8l0.9-0.5h0.7
			l0.9,0.5h-0.8L67.4,41.7z M68.2,45.7l-0.8-2.1l-0.8,2.1H68.2z M66.9,49.5v-1.1H68v1.1H66.9z"/>
		<path class="st1" d="M72.2,47.9v-4.8h-1.7v-1h4.6v1h-1.7v4.8H72.2z"/>
		<path class="st1" d="M29.2,57.5v-4.8h-1.7v-1h4.6v1h-1.7v4.8H29.2z"/>
		<path class="st1" d="M32.8,57.5v-5.7h2.4c0.6,0,1.1,0.1,1.3,0.2s0.5,0.3,0.7,0.5s0.3,0.6,0.3,0.9c0,0.4-0.1,0.8-0.4,1.1
			S36.5,54.9,36,55c0.3,0.1,0.5,0.3,0.6,0.5s0.4,0.5,0.7,0.9l0.7,1.1h-1.4l-0.8-1.2c-0.3-0.4-0.5-0.7-0.6-0.8s-0.2-0.2-0.3-0.2
			s-0.3-0.1-0.6-0.1H34v2.4H32.8z M34,54.2h0.9c0.6,0,0.9,0,1-0.1s0.2-0.1,0.3-0.2s0.1-0.3,0.1-0.4c0-0.2-0.1-0.3-0.2-0.5
			s-0.2-0.2-0.4-0.2c-0.1,0-0.4,0-0.8,0H34V54.2z"/>
		<path class="st1" d="M38.4,54.7c0-0.6,0.1-1.1,0.3-1.5c0.1-0.3,0.3-0.6,0.5-0.8s0.5-0.4,0.7-0.5c0.4-0.2,0.8-0.2,1.2-0.2
			c0.8,0,1.5,0.3,2,0.8s0.8,1.3,0.8,2.2c0,0.9-0.3,1.6-0.8,2.2s-1.2,0.8-2,0.8c-0.9,0-1.5-0.3-2-0.8S38.4,55.6,38.4,54.7z
			 M39.6,54.7c0,0.6,0.1,1.1,0.4,1.5s0.7,0.5,1.1,0.5s0.8-0.2,1.1-0.5s0.4-0.8,0.4-1.5c0-0.7-0.1-1.1-0.4-1.5s-0.7-0.5-1.1-0.5
			s-0.9,0.2-1.2,0.5S39.6,54,39.6,54.7z"/>
		<path class="st1" d="M44.8,57.5v-5.7H46l2.3,3.8v-3.8h1.1v5.7h-1.2l-2.3-3.7v3.7H44.8z"/>
		<path class="st1" d="M53.3,55.4v-1h2.5v2.3c-0.2,0.2-0.6,0.4-1.1,0.6s-0.9,0.3-1.4,0.3c-0.6,0-1.1-0.1-1.6-0.4s-0.8-0.6-1-1.1
			s-0.3-1-0.3-1.5c0-0.6,0.1-1.1,0.4-1.6s0.6-0.8,1.1-1.1c0.4-0.2,0.8-0.3,1.4-0.3c0.7,0,1.3,0.1,1.7,0.4s0.7,0.7,0.8,1.2l-1.1,0.2
			c-0.1-0.3-0.2-0.5-0.5-0.7s-0.5-0.2-0.8-0.2c-0.5,0-0.9,0.2-1.2,0.5s-0.4,0.8-0.4,1.4c0,0.7,0.2,1.2,0.5,1.5s0.7,0.5,1.2,0.5
			c0.2,0,0.5,0,0.7-0.1s0.5-0.2,0.6-0.3v-0.7H53.3z"/>
		<path class="st1" d="M61,57.5v-1.2h-2.3v-1l2.5-3.6H62v3.6h0.7v1H62v1.2H61z M61,55.4v-2l-1.3,2H61z"/>
		<path class="st1" d="M64.2,54.4c-0.3-0.1-0.5-0.3-0.6-0.5s-0.2-0.4-0.2-0.7c0-0.4,0.1-0.8,0.4-1.1c0.3-0.3,0.7-0.4,1.3-0.4
			c0.5,0,1,0.1,1.3,0.4s0.5,0.6,0.5,1.1c0,0.3-0.1,0.5-0.2,0.7s-0.3,0.4-0.6,0.5c0.3,0.1,0.6,0.3,0.7,0.6s0.2,0.5,0.2,0.8
			c0,0.5-0.2,1-0.5,1.3s-0.8,0.5-1.3,0.5c-0.5,0-1-0.1-1.3-0.4c-0.4-0.3-0.6-0.8-0.6-1.3c0-0.3,0.1-0.6,0.2-0.9S63.9,54.6,64.2,54.4
			z M64.3,55.8c0,0.3,0.1,0.5,0.2,0.7s0.3,0.3,0.6,0.3c0.2,0,0.4-0.1,0.6-0.2s0.2-0.4,0.2-0.7c0-0.3-0.1-0.5-0.2-0.6
			s-0.3-0.2-0.6-0.2c-0.3,0-0.5,0.1-0.6,0.3S64.3,55.6,64.3,55.8z M64.4,53.3c0,0.2,0.1,0.4,0.2,0.5s0.3,0.2,0.5,0.2
			c0.2,0,0.4-0.1,0.5-0.2s0.2-0.3,0.2-0.5c0-0.2-0.1-0.4-0.2-0.5s-0.3-0.2-0.5-0.2c-0.2,0-0.4,0.1-0.5,0.2S64.4,53.1,64.4,53.3z"/>
		<path class="st1" d="M72.8,55.4v-1h2.5v2.3c-0.2,0.2-0.6,0.4-1.1,0.6s-0.9,0.3-1.4,0.3c-0.6,0-1.1-0.1-1.6-0.4s-0.8-0.6-1-1.1
			s-0.3-1-0.3-1.5c0-0.6,0.1-1.1,0.4-1.6s0.6-0.8,1.1-1.1c0.4-0.2,0.8-0.3,1.4-0.3c0.7,0,1.3,0.1,1.7,0.4s0.7,0.7,0.8,1.2l-1.1,0.2
			c-0.1-0.3-0.2-0.5-0.5-0.7s-0.5-0.2-0.8-0.2c-0.5,0-0.9,0.2-1.2,0.5s-0.4,0.8-0.4,1.4c0,0.7,0.2,1.2,0.5,1.5s0.7,0.5,1.2,0.5
			c0.2,0,0.5,0,0.7-0.1s0.5-0.2,0.6-0.3v-0.7H72.8z"/>
		<path class="st1" d="M76.4,57.5v-5.7h1.2v5.7H76.4z"/>
		<path class="st1" d="M83.8,51.8h1.1v0.8c0,0.3,0,0.6-0.1,0.8s-0.2,0.3-0.3,0.5s-0.3,0.3-0.6,0.3c0,0.2,0,0.3,0,0.5
			c0,0.9-0.3,1.6-0.8,2.2s-1.2,0.8-2,0.8c-0.9,0-1.5-0.3-2-0.8s-0.8-1.2-0.8-2.1c0-1,0.3-1.7,0.8-2.3c0.5-0.5,1.1-0.7,2-0.7
			c0.8,0,1.5,0.3,2,0.8c0.3,0.3,0.5,0.7,0.6,1.2c0.3-0.1,0.5-0.4,0.5-0.8h-0.5V51.8z M79.6,54.7c0,0.6,0.1,1.1,0.4,1.5
			c0.3,0.3,0.7,0.5,1.1,0.5s0.9-0.2,1.1-0.5c0.3-0.3,0.4-0.8,0.4-1.5c0-0.6-0.1-1.1-0.4-1.5c-0.3-0.3-0.7-0.5-1.1-0.5
			s-0.9,0.2-1.2,0.5C79.7,53.5,79.6,54,79.6,54.7z M81.8,51.5h-0.7L80,50.3h1.2L81.8,51.5z"/>
	</g>
</g>
<g>
	<defs>
		<path id="SVGID_2_" d="M91.9,68.2h-73c-4.6,0-8.3-3.7-8.3-8.3V19.6c0-4.6,3.7-8.3,8.3-8.3h73c4.6,0,8.3,3.7,8.3,8.3V60
			C100.2,64.5,96.5,68.2,91.9,68.2z"/>
	</defs>
	<clipPath id="SVGID_3_">
		<use xlink:href="#SVGID_2_"  style="overflow:visible;"/>
	</clipPath>
	<g class="st2">
		
			<image style="overflow:visible;opacity:0.46;" width="215" height="209" xlink:href="DBC2C65C.png"  transform="matrix(0.24 0 0 0.24 -8.238 -7.12)">
		</image>
		<g>
			<linearGradient id="SVGID_4_" gradientUnits="userSpaceOnUse" x1="0" y1="15.8106" x2="33.124" y2="15.8106">
				<stop  offset="0" style="stop-color:#0197F8"/>
				<stop  offset="1" style="stop-color:#79D3FE"/>
			</linearGradient>
			<path class="st3" d="M17.6,0.7l4.2,8.5c0.2,0.4,0.5,0.6,0.9,0.7l9.4,1.4c1,0.1,1.4,1.4,0.7,2.1L26,19.8c-0.3,0.3-0.4,0.7-0.3,1.1
				l1.6,9.3c0.2,1-0.9,1.7-1.8,1.3l-8.4-4.4c-0.4-0.2-0.8-0.2-1.1,0l-8.4,4.4c-0.9,0.5-1.9-0.3-1.8-1.3l1.6-9.3
				c0.1-0.4-0.1-0.8-0.3-1.1l-6.8-6.6C-0.4,12.5,0,11.3,1,11.2l9.4-1.4c0.4-0.1,0.7-0.3,0.9-0.7l4.2-8.5C15.9-0.2,17.2-0.2,17.6,0.7
				z"/>
		</g>
	</g>
</g>
<linearGradient id="SVGID_5_" gradientUnits="userSpaceOnUse" x1="0" y1="15.8106" x2="33.124" y2="15.8106">
	<stop  offset="0" style="stop-color:#0197F8"/>
	<stop  offset="1" style="stop-color:#79D3FE"/>
</linearGradient>
<path class="st4" d="M17.6,0.7l4.2,8.5c0.2,0.4,0.5,0.6,0.9,0.7l9.4,1.4c1,0.1,1.4,1.4,0.7,2.1L26,19.8c-0.3,0.3-0.4,0.7-0.3,1.1
	l1.6,9.3c0.2,1-0.9,1.7-1.8,1.3l-8.4-4.4c-0.4-0.2-0.8-0.2-1.1,0l-8.4,4.4c-0.9,0.5-1.9-0.3-1.8-1.3l1.6-9.3
	c0.1-0.4-0.1-0.8-0.3-1.1l-6.8-6.6C-0.4,12.5,0,11.3,1,11.2l9.4-1.4c0.4-0.1,0.7-0.3,0.9-0.7l4.2-8.5C15.9-0.2,17.2-0.2,17.6,0.7z"
	/>
<g>
	<path class="st1" d="M16.7,23.6v-2.5h-5v-2.1l5.3-7.8h2v7.8h1.5v2.1H19v2.5H16.7z M16.7,19.1v-4.2l-2.8,4.2H16.7z"/>
</g>
</svg>
