<?xml version="1.0" encoding="utf-8"?>
<!-- Generator: Adobe Illustrator 22.0.0, SVG Export Plug-In . SVG Version: 6.00 Build 0)  -->
<svg version="1.1" id="OBJECTS" xmlns="http://www.w3.org/2000/svg" xmlns:xlink="http://www.w3.org/1999/xlink" x="0px" y="0px"
	 viewBox="0 0 100.2 70.5" style="enable-background:new 0 0 100.2 70.5;" xml:space="preserve">
<style type="text/css">
	.st0{fill:url(#SVGID_1_);}
	.st1{clip-path:url(#SVGID_3_);}
	.st2{fill:url(#SVGID_4_);}
	.st3{fill:url(#SVGID_5_);}
	.st4{fill:#FCFCFC;}
</style>
<linearGradient id="SVGID_1_" gradientUnits="userSpaceOnUse" x1="68.2057" y1="-5.3138" x2="46.563" y2="72.9125">
	<stop  offset="0" style="stop-color:#535FE9"/>
	<stop  offset="1" style="stop-color:#79D3FE"/>
</linearGradient>
<path class="st0" d="M91.6,70.5h-73c-4.6,0-8.3-3.7-8.3-8.3V21.9c0-4.6,3.7-8.3,8.3-8.3h73c4.6,0,8.3,3.7,8.3,8.3v40.4
	C99.8,66.8,96.1,70.5,91.6,70.5z"/>
<g>
	<defs>
		<path id="SVGID_2_" d="M91.9,68.2h-73c-4.6,0-8.3-3.7-8.3-8.3V19.6c0-4.6,3.7-8.3,8.3-8.3h73c4.6,0,8.3,3.7,8.3,8.3V60
			C100.2,64.5,96.5,68.2,91.9,68.2z"/>
	</defs>
	<clipPath id="SVGID_3_">
		<use xlink:href="#SVGID_2_"  style="overflow:visible;"/>
	</clipPath>
	<g class="st1">
		
			<image style="overflow:visible;opacity:0.46;" width="215" height="208" xlink:href="3ACEE907.png"  transform="matrix(0.24 0 0 0.24 -8.118 -7.04)">
		</image>
		<g>
			<linearGradient id="SVGID_4_" gradientUnits="userSpaceOnUse" x1="0" y1="15.8106" x2="33.124" y2="15.8106">
				<stop  offset="0" style="stop-color:#0197F8"/>
				<stop  offset="1" style="stop-color:#79D3FE"/>
			</linearGradient>
			<path class="st2" d="M17.6,0.7l4.2,8.5c0.2,0.4,0.5,0.6,0.9,0.7l9.4,1.4c1,0.1,1.4,1.4,0.7,2.1L26,19.8c-0.3,0.3-0.4,0.7-0.3,1.1
				l1.6,9.3c0.2,1-0.9,1.7-1.8,1.3l-8.4-4.4c-0.4-0.2-0.8-0.2-1.1,0l-8.4,4.4c-0.9,0.5-1.9-0.3-1.8-1.3l1.6-9.3
				c0.1-0.4-0.1-0.8-0.3-1.1l-6.8-6.6C-0.4,12.5,0,11.3,1,11.2l9.4-1.4c0.4-0.1,0.7-0.3,0.9-0.7l4.2-8.5C15.9-0.2,17.2-0.2,17.6,0.7
				z"/>
		</g>
	</g>
</g>
<linearGradient id="SVGID_5_" gradientUnits="userSpaceOnUse" x1="0" y1="15.8106" x2="33.124" y2="15.8106">
	<stop  offset="0" style="stop-color:#0197F8"/>
	<stop  offset="1" style="stop-color:#79D3FE"/>
</linearGradient>
<path class="st3" d="M17.6,0.7l4.2,8.5c0.2,0.4,0.5,0.6,0.9,0.7l9.4,1.4c1,0.1,1.4,1.4,0.7,2.1L26,19.8c-0.3,0.3-0.4,0.7-0.3,1.1
	l1.6,9.3c0.2,1-0.9,1.7-1.8,1.3l-8.4-4.4c-0.4-0.2-0.8-0.2-1.1,0l-8.4,4.4c-0.9,0.5-1.9-0.3-1.8-1.3l1.6-9.3
	c0.1-0.4-0.1-0.8-0.3-1.1l-6.8-6.6C-0.4,12.5,0,11.3,1,11.2l9.4-1.4c0.4-0.1,0.7-0.3,0.9-0.7l4.2-8.5C15.9-0.2,17.2-0.2,17.6,0.7z"
	/>
<g>
	<path class="st4" d="M12.1,21.3l2.3-0.2c0.1,0.5,0.3,0.9,0.6,1.3c0.3,0.3,0.7,0.5,1.1,0.5c0.5,0,0.9-0.2,1.2-0.6s0.5-1,0.5-1.8
		c0-0.8-0.2-1.3-0.5-1.7c-0.3-0.4-0.8-0.6-1.3-0.6c-0.7,0-1.3,0.3-1.8,0.9l-1.9-0.3l1.2-6.4h6.2v2.2h-4.4L15,16.6
		c0.5-0.3,1.1-0.4,1.6-0.4c1,0,1.9,0.4,2.6,1.1s1.1,1.7,1.1,2.9c0,1-0.3,1.9-0.9,2.7c-0.8,1.1-1.9,1.6-3.3,1.6c-1.1,0-2-0.3-2.8-0.9
		S12.3,22.3,12.1,21.3z"/>
</g>
<g>
	<g>
		<path class="st4" d="M16.8,38.5v-4.8h-1.7v-1h4.6v1H18v4.8H16.8z"/>
		<path class="st4" d="M20.4,38.5v-5.7h1.2V35h2.3v-2.3H25v5.7h-1.2V36h-2.3v2.5H20.4z"/>
		<path class="st4" d="M31.4,38.5h-1.3l-0.5-1.3h-2.3l-0.5,1.3h-1.2l2.2-5.7h1.2L31.4,38.5z M29.2,36.2l-0.8-2.1l-0.8,2.1H29.2z"/>
		<path class="st4" d="M32.7,38.5v-2.4l-2.1-3.3H32l1.3,2.3l1.3-2.3H36l-2.1,3.3v2.4H32.7z"/>
		<path class="st4" d="M39.9,38.5v-4.8h-1.7v-1h4.6v1h-1.7v4.8H39.9z"/>
		<path class="st4" d="M43.5,38.5v-5.7h1.2V35H47v-2.3h1.2v5.7H47V36h-2.3v2.5H43.5z"/>
		<path class="st4" d="M49.3,38.5v-5.7h4.2v1h-3.1V35h2.9v1h-2.9v1.6h3.2v1H49.3z M51.6,32.3l-0.4,0.3h-0.8l0.9-0.5h0.7l0.9,0.5H52
			L51.6,32.3z M51.1,31.9l0.5-0.6h1.2l-1,0.6H51.1z"/>
		<path class="st4" d="M56.9,38.5v-5.7h1.2v4.7h2.9v1H56.9z"/>
		<path class="st4" d="M61.7,38.5v-5.7h1.2v5.7H61.7z"/>
		<path class="st4" d="M64,38.5v-5.7h1.1l2.3,3.8v-3.8h1.1v5.7h-1.2l-2.3-3.7v3.7H64z"/>
		<path class="st4" d="M69.8,38.5v-5.7h1.2V35h2.3v-2.3h1.2v5.7h-1.2V36h-2.3v2.5H69.8z"/>
		<path class="st4" d="M77.8,38.5v-5.7h1.2v2.5l2.3-2.5h1.6L80.7,35l2.3,3.5h-1.5l-1.6-2.7l-0.9,1v1.7H77.8z"/>
		<path class="st4" d="M83.5,38.5v-5.7h1.2v5.7H83.5z"/>
		<path class="st4" d="M85.8,38.5v-5.7H90v1h-3.1V35h2.9v1h-2.9v1.6h3.2v1H85.8z M88,32.3l-0.4,0.3h-0.8l0.9-0.5h0.7l0.9,0.5h-0.8
			L88,32.3z M87.5,40.1V39h1.1v1.1H87.5z"/>
		<path class="st4" d="M91.1,38.5v-5.7h1.1l2.3,3.8v-3.8h1.1v5.7h-1.2l-2.3-3.7v3.7H91.1z"/>
		<path class="st4" d="M35.4,48.1l-2-5.7h1.3l1.4,4.2l1.4-4.2h1.2l-2.1,5.7H35.4z"/>
		<path class="st4" d="M44.5,48.1h-1.3l-0.5-1.3h-2.3L40,48.1h-1.2l2.2-5.7h1.2L44.5,48.1z M42.2,42h-0.7l-1.1-1.2h1.2L42.2,42z
			 M42.3,45.8l-0.8-2.1l-0.8,2.1H42.3z"/>
		<path class="st4" d="M47.3,42.4h2.3c0.5,0,0.8,0,1,0.1s0.4,0.1,0.6,0.2s0.3,0.3,0.4,0.5s0.2,0.4,0.2,0.7c0,0.3-0.1,0.5-0.2,0.7
			s-0.3,0.4-0.6,0.5c0.3,0.1,0.6,0.3,0.8,0.5s0.3,0.5,0.3,0.9c0,0.3-0.1,0.5-0.2,0.8s-0.3,0.4-0.5,0.6S51,48,50.7,48.1
			c-0.2,0-0.7,0-1.4,0h-1.9V42.4z M48.5,43.3v1.3h0.8c0.5,0,0.7,0,0.8,0c0.2,0,0.4-0.1,0.5-0.2s0.2-0.3,0.2-0.4c0-0.2,0-0.3-0.1-0.4
			s-0.2-0.2-0.4-0.2c-0.1,0-0.4,0-1,0H48.5z M48.5,45.6v1.5h1.1c0.4,0,0.7,0,0.8,0c0.2,0,0.3-0.1,0.4-0.2s0.2-0.3,0.2-0.5
			c0-0.2,0-0.3-0.1-0.4s-0.2-0.2-0.4-0.3s-0.5-0.1-1-0.1H48.5z"/>
		<path class="st4" d="M52.9,45.3c0-0.6,0.1-1.1,0.3-1.5c0.1-0.3,0.3-0.6,0.5-0.8s0.5-0.4,0.7-0.5c0.4-0.2,0.8-0.2,1.2-0.2
			c0.8,0,1.5,0.3,2,0.8s0.8,1.3,0.8,2.2c0,0.9-0.3,1.6-0.8,2.2s-1.2,0.8-2,0.8c-0.9,0-1.5-0.3-2-0.8S52.9,46.2,52.9,45.3z M54,45.2
			c0,0.6,0.1,1.1,0.4,1.5s0.7,0.5,1.1,0.5s0.8-0.2,1.1-0.5s0.4-0.8,0.4-1.5c0-0.7-0.1-1.1-0.4-1.5s-0.7-0.5-1.1-0.5
			s-0.9,0.2-1.2,0.5S54,44.6,54,45.2z M55.6,41.9l-0.4,0.3h-0.8l0.9-0.5H56l0.9,0.5H56L55.6,41.9z M55,49.7v-1.1h1.1v1.1H55z"/>
		<path class="st4" d="M61.6,48.1v-5.7h1.2v4.7h2.9v1H61.6z"/>
		<path class="st4" d="M66.2,45.3c0-0.6,0.1-1.1,0.3-1.5c0.1-0.3,0.3-0.6,0.5-0.8s0.5-0.4,0.7-0.5c0.4-0.2,0.8-0.2,1.2-0.2
			c0.8,0,1.5,0.3,2,0.8s0.8,1.3,0.8,2.2c0,0.9-0.3,1.6-0.8,2.2s-1.2,0.8-2,0.8c-0.9,0-1.5-0.3-2-0.8S66.2,46.2,66.2,45.3z
			 M67.4,45.2c0,0.6,0.1,1.1,0.4,1.5s0.7,0.5,1.1,0.5s0.8-0.2,1.1-0.5s0.4-0.8,0.4-1.5c0-0.7-0.1-1.1-0.4-1.5s-0.7-0.5-1.1-0.5
			s-0.9,0.2-1.2,0.5S67.4,44.6,67.4,45.2z M68.4,49.7v-1.1h1.1v1.1H68.4z"/>
		<path class="st4" d="M76.3,46l1.1,0.4c-0.2,0.6-0.5,1.1-0.9,1.4s-0.9,0.5-1.5,0.5c-0.8,0-1.4-0.3-1.9-0.8s-0.7-1.2-0.7-2.1
			c0-1,0.2-1.7,0.7-2.2s1.1-0.8,1.9-0.8c0.7,0,1.3,0.2,1.7,0.6c0.3,0.2,0.5,0.6,0.6,1.1l-1.1,0.3c-0.1-0.3-0.2-0.5-0.4-0.7
			s-0.5-0.3-0.8-0.3c-0.4,0-0.8,0.2-1,0.5s-0.4,0.8-0.4,1.5c0,0.7,0.1,1.2,0.4,1.5s0.6,0.5,1,0.5c0.3,0,0.6-0.1,0.8-0.3
			S76.2,46.4,76.3,46z"/>
		<path class="st4" d="M34.3,55.6l1.1,0.4c-0.2,0.6-0.5,1.1-0.9,1.4s-0.9,0.5-1.5,0.5c-0.8,0-1.4-0.3-1.9-0.8s-0.7-1.2-0.7-2.1
			c0-1,0.2-1.7,0.7-2.2s1.1-0.8,1.9-0.8c0.7,0,1.3,0.2,1.7,0.6c0.3,0.2,0.5,0.6,0.6,1.1l-1.1,0.3c-0.1-0.3-0.2-0.5-0.4-0.7
			s-0.5-0.3-0.8-0.3c-0.4,0-0.8,0.2-1,0.5s-0.4,0.8-0.4,1.5c0,0.7,0.1,1.2,0.4,1.5s0.6,0.5,1,0.5c0.3,0,0.6-0.1,0.8-0.3
			S34.2,56,34.3,55.6z"/>
		<path class="st4" d="M36.4,57.7V52h1.2v2.3h2.3V52H41v5.7h-1.2v-2.5h-2.3v2.5H36.4z"/>
		<path class="st4" d="M42,51.6l0.5-1.2h1.2l-1.1,1.2H42z M42.2,57.7V52h1.2v5.7H42.2z"/>
		<path class="st4" d="M44.4,57.7V52h1.1l2.3,3.8V52H49v5.7h-1.2L45.5,54v3.7H44.4z"/>
		<path class="st4" d="M50.2,57.7V52h1.2v2.3h2.3V52h1.2v5.7h-1.2v-2.5h-2.3v2.5H50.2z"/>
		<path class="st4" d="M58.2,57.7V52h1.2v2.3h2.3V52h1.2v5.7h-1.2v-2.5h-2.3v2.5H58.2z"/>
		<path class="st4" d="M69.1,57.7h-1.3l-0.5-1.3h-2.3l-0.5,1.3h-1.2l2.2-5.7h1.2L69.1,57.7z M65.3,51.7h-0.5c0-0.1,0-0.1,0-0.1
			c0-0.3,0.1-0.5,0.2-0.6s0.3-0.2,0.5-0.2c0.1,0,0.2,0,0.3,0s0.2,0.1,0.4,0.2s0.4,0.1,0.5,0.1c0.1,0,0.2,0,0.2-0.1s0.1-0.1,0.1-0.3
			h0.5c0,0.4-0.1,0.6-0.2,0.8s-0.3,0.2-0.5,0.2c-0.1,0-0.2,0-0.3,0c-0.1,0-0.2-0.1-0.4-0.2s-0.4-0.1-0.5-0.1c-0.1,0-0.1,0-0.2,0.1
			S65.3,51.5,65.3,51.7z M67,55.4l-0.8-2.1l-0.8,2.1H67z"/>
		<path class="st4" d="M69.8,57.7V52h1.1l2.3,3.8V52h1.1v5.7h-1.2L70.8,54v3.7H69.8z"/>
		<path class="st4" d="M78.2,55.6v-1h2.5v2.3c-0.2,0.2-0.6,0.4-1.1,0.6s-0.9,0.3-1.4,0.3c-0.6,0-1.1-0.1-1.6-0.4s-0.8-0.6-1-1.1
			s-0.3-1-0.3-1.5c0-0.6,0.1-1.1,0.4-1.6s0.6-0.8,1.1-1.1c0.4-0.2,0.8-0.3,1.4-0.3c0.7,0,1.3,0.1,1.7,0.4s0.7,0.7,0.8,1.2l-1.1,0.2
			c-0.1-0.3-0.2-0.5-0.5-0.7s-0.5-0.2-0.8-0.2c-0.5,0-0.9,0.2-1.2,0.5s-0.4,0.8-0.4,1.4c0,0.7,0.2,1.2,0.5,1.5s0.7,0.5,1.2,0.5
			c0.2,0,0.5,0,0.7-0.1s0.5-0.2,0.6-0.3v-0.7H78.2z"/>
	</g>
</g>
</svg>
